Get:1 http://deb.debian.org/debian unstable InRelease [233 kB]
Get:2 https://people.debian.org/~gio/reprepro unstable InRelease [6844 B]
Get:3 http://deb.debian.org/debian unstable/main Sources.diff/Index [27.9 kB]
Get:4 http://deb.debian.org/debian unstable/main amd64 Packages.diff/Index [27.9 kB]
Get:5 http://deb.debian.org/debian unstable/main Sources 2018-09-24-2016.03.pdiff [18.9 kB]
Get:6 https://people.debian.org/~gio/reprepro unstable/main amd64 Packages [12.2 kB]
Get:7 http://deb.debian.org/debian unstable/main Sources 2018-09-25-0210.07.pdiff [5710 B]
Get:8 http://deb.debian.org/debian unstable/main Sources 2018-09-25-0818.18.pdiff [8180 B]
Get:9 http://deb.debian.org/debian unstable/main Sources 2018-09-25-1414.06.pdiff [15.2 kB]
Get:10 http://deb.debian.org/debian unstable/main Sources 2018-09-25-2009.34.pdiff [8543 B]
Get:11 http://deb.debian.org/debian unstable/main Sources 2018-09-26-0208.49.pdiff [4854 B]
Get:12 http://deb.debian.org/debian unstable/main Sources 2018-09-26-0807.29.pdiff [4104 B]
Get:13 http://deb.debian.org/debian unstable/main Sources 2018-09-26-1409.08.pdiff [14.0 kB]
Get:13 http://deb.debian.org/debian unstable/main Sources 2018-09-26-1409.08.pdiff [14.0 kB]
Get:14 http://deb.debian.org/debian unstable/main amd64 Packages 2018-09-24-2016.03.pdiff [25.0 kB]
Get:15 http://deb.debian.org/debian unstable/main amd64 Packages 2018-09-25-0210.07.pdiff [27.8 kB]
Get:16 http://deb.debian.org/debian unstable/main amd64 Packages 2018-09-25-0818.18.pdiff [6665 B]
Get:17 http://deb.debian.org/debian unstable/main amd64 Packages 2018-09-25-1414.06.pdiff [12.7 kB]
Get:18 http://deb.debian.org/debian unstable/main amd64 Packages 2018-09-25-2009.34.pdiff [12.5 kB]
Get:19 http://deb.debian.org/debian unstable/main amd64 Packages 2018-09-26-0208.49.pdiff [7336 B]
Get:20 http://deb.debian.org/debian unstable/main amd64 Packages 2018-09-26-0807.29.pdiff [2664 B]
Get:21 http://deb.debian.org/debian unstable/main amd64 Packages 2018-09-26-1409.08.pdiff [17.7 kB]
Get:21 http://deb.debian.org/debian unstable/main amd64 Packages 2018-09-26-1409.08.pdiff [17.7 kB]
Fetched 499 kB in 2s (252 kB/s)
Reading package lists...
Reading package lists...
Building dependency tree...
Reading state information...
Some packages could not be installed. This may mean that you have
requested an impossible situation or if you are using the unstable
distribution that some required packages have not yet been created
or been moved out of Incoming.
The following information may help to resolve the situation:

The following packages have unmet dependencies:
 builddeps:progressivemauve : Depends: libmems-dev (>= 1.6.0+4725-7~) but it is not going to be installed
E: Unable to correct problems, you have held broken packages.
