Get:1 http://deb.debian.org/debian unstable InRelease [233 kB]
Get:2 http://deb.debian.org/debian unstable/main Sources.diff/Index [27.9 kB]
Get:3 http://deb.debian.org/debian unstable/main amd64 Packages.diff/Index [27.9 kB]
Get:4 http://deb.debian.org/debian unstable/main Sources 2018-09-23-0808.58.pdiff [3504 B]
Get:4 http://deb.debian.org/debian unstable/main Sources 2018-09-23-0808.58.pdiff [3504 B]
Get:5 http://deb.debian.org/debian unstable/main amd64 Packages 2018-09-23-0808.58.pdiff [2844 B]
Get:5 http://deb.debian.org/debian unstable/main amd64 Packages 2018-09-23-0808.58.pdiff [2844 B]
Fetched 295 kB in 1s (243 kB/s)
Reading package lists...
Reading package lists...
Building dependency tree...
Reading state information...
The following NEW packages will be installed:
  autoconf automake autopoint autotools-dev bsdmainutils debhelper
  dh-autoreconf dh-strip-nondeterminism dwz file gettext gettext-base
  groff-base intltool-debian libarchive-zip-perl libboost-chrono1.62.0
  libboost-dev libboost-graph-dev libboost-graph1.62-dev libboost-graph1.62.0
  libboost-regex1.62.0 libboost-serialization1.62-dev
  libboost-serialization1.62.0 libboost-system1.62.0 libboost-test1.62-dev
  libboost-test1.62.0 libboost-timer1.62.0 libboost1.62-dev libbsd0 libcroco3
  libf2c2 libf2c2-dev libfile-stripnondeterminism-perl libfreetype6
  libglib2.0-0 libgraphite2-3 libharfbuzz0b libicu-le-hb0 libicu60
  libmagic-mgc libmagic1 libncurses6 libpipeline1 libpng16-16 libsigsegv2
  libtimedate-perl libtool libxml2 m4 man-db po-debconf
0 upgraded, 51 newly installed, 0 to remove and 0 not upgraded.
Need to get 29.3 MB of archives.
After this operation, 199 MB of additional disk space will be used.
Get:1 http://deb.debian.org/debian unstable/main amd64 libbsd0 amd64 0.9.1-1 [99.3 kB]
Get:2 http://deb.debian.org/debian unstable/main amd64 bsdmainutils amd64 11.1.2+b1 [191 kB]
Get:3 http://deb.debian.org/debian unstable/main amd64 groff-base amd64 1.22.3-10 [1176 kB]
Get:4 http://deb.debian.org/debian unstable/main amd64 libpipeline1 amd64 1.5.0-1 [29.0 kB]
Get:5 http://deb.debian.org/debian unstable/main amd64 man-db amd64 2.8.4-2 [1194 kB]
Get:6 http://deb.debian.org/debian unstable/main amd64 libmagic-mgc amd64 1:5.34-2 [239 kB]
Get:7 http://deb.debian.org/debian unstable/main amd64 libmagic1 amd64 1:5.34-2 [116 kB]
Get:8 http://deb.debian.org/debian unstable/main amd64 file amd64 1:5.34-2 [65.8 kB]
Get:9 http://deb.debian.org/debian unstable/main amd64 gettext-base amd64 0.19.8.1-7 [122 kB]
Get:10 http://deb.debian.org/debian unstable/main amd64 libsigsegv2 amd64 2.12-2 [32.8 kB]
Get:11 http://deb.debian.org/debian unstable/main amd64 m4 amd64 1.4.18-1 [202 kB]
Get:12 http://deb.debian.org/debian unstable/main amd64 autoconf all 2.69-11 [341 kB]
Get:13 http://deb.debian.org/debian unstable/main amd64 autotools-dev all 20180224.1 [77.0 kB]
Get:14 http://deb.debian.org/debian unstable/main amd64 automake all 1:1.16.1-1.1 [771 kB]
Get:15 http://deb.debian.org/debian unstable/main amd64 autopoint all 0.19.8.1-7 [434 kB]
Get:16 http://deb.debian.org/debian unstable/main amd64 libtool all 2.4.6-4 [547 kB]
Get:17 http://deb.debian.org/debian unstable/main amd64 dh-autoreconf all 19 [16.9 kB]
Get:18 http://deb.debian.org/debian unstable/main amd64 libarchive-zip-perl all 1.64-1 [96.8 kB]
Get:19 http://deb.debian.org/debian unstable/main amd64 libfile-stripnondeterminism-perl all 0.042-1 [20.1 kB]
Get:20 http://deb.debian.org/debian unstable/main amd64 libtimedate-perl all 2.3000-2 [42.2 kB]
Get:21 http://deb.debian.org/debian unstable/main amd64 dh-strip-nondeterminism all 0.042-1 [12.1 kB]
Get:22 http://deb.debian.org/debian unstable/main amd64 dwz amd64 0.12-2 [77.5 kB]
Get:23 http://deb.debian.org/debian unstable/main amd64 libglib2.0-0 amd64 2.58.1-2 [1223 kB]
Get:24 http://deb.debian.org/debian unstable/main amd64 libpng16-16 amd64 1.6.34-2 [288 kB]
Get:25 http://deb.debian.org/debian unstable/main amd64 libfreetype6 amd64 2.8.1-2 [461 kB]
Get:26 http://deb.debian.org/debian unstable/main amd64 libgraphite2-3 amd64 1.3.12-1 [80.2 kB]
Get:27 http://deb.debian.org/debian unstable/main amd64 libharfbuzz0b amd64 1.9.0-1 [923 kB]
Get:28 http://deb.debian.org/debian unstable/main amd64 libicu-le-hb0 amd64 1.0.3+git161113-5 [14.6 kB]
Get:29 http://deb.debian.org/debian unstable/main amd64 libicu60 amd64 60.2-6 [8073 kB]
Get:30 http://deb.debian.org/debian unstable/main amd64 libxml2 amd64 2.9.4+dfsg1-7+b1 [725 kB]
Get:31 http://deb.debian.org/debian unstable/main amd64 libcroco3 amd64 0.6.12-2 [144 kB]
Get:32 http://deb.debian.org/debian unstable/main amd64 libncurses6 amd64 6.1+20180714-1 [102 kB]
Get:33 http://deb.debian.org/debian unstable/main amd64 gettext amd64 0.19.8.1-7 [1304 kB]
Get:34 http://deb.debian.org/debian unstable/main amd64 intltool-debian all 0.35.0+20060710.4 [26.3 kB]
Get:35 http://deb.debian.org/debian unstable/main amd64 po-debconf all 1.0.20 [247 kB]
Get:36 http://deb.debian.org/debian unstable/main amd64 debhelper all 11.4 [985 kB]
Get:37 http://deb.debian.org/debian unstable/main amd64 libboost-system1.62.0 amd64 1.62.0+dfsg-10 [33.2 kB]
Get:38 http://deb.debian.org/debian unstable/main amd64 libboost-chrono1.62.0 amd64 1.62.0+dfsg-10 [34.2 kB]
Get:39 http://deb.debian.org/debian unstable/main amd64 libboost1.62-dev amd64 1.62.0+dfsg-10 [7003 kB]
Get:40 http://deb.debian.org/debian unstable/main amd64 libboost-dev amd64 1.62.0.1 [3632 B]
Get:41 http://deb.debian.org/debian unstable/main amd64 libboost-regex1.62.0 amd64 1.62.0+dfsg-10 [286 kB]
Get:42 http://deb.debian.org/debian unstable/main amd64 libboost-graph1.62.0 amd64 1.62.0+dfsg-10 [120 kB]
Get:43 http://deb.debian.org/debian unstable/main amd64 libboost-serialization1.62.0 amd64 1.62.0+dfsg-10 [129 kB]
Get:44 http://deb.debian.org/debian unstable/main amd64 libboost-serialization1.62-dev amd64 1.62.0+dfsg-10 [169 kB]
Get:45 http://deb.debian.org/debian unstable/main amd64 libboost-timer1.62.0 amd64 1.62.0+dfsg-10 [35.0 kB]
Get:46 http://deb.debian.org/debian unstable/main amd64 libboost-test1.62.0 amd64 1.62.0+dfsg-10 [253 kB]
Get:47 http://deb.debian.org/debian unstable/main amd64 libboost-test1.62-dev amd64 1.62.0+dfsg-10 [304 kB]
Get:48 http://deb.debian.org/debian unstable/main amd64 libboost-graph1.62-dev amd64 1.62.0+dfsg-10 [130 kB]
Get:49 http://deb.debian.org/debian unstable/main amd64 libboost-graph-dev amd64 1.62.0.1 [3510 B]
Get:50 http://deb.debian.org/debian unstable/main amd64 libf2c2 amd64 20130926-3 [123 kB]
Get:51 http://deb.debian.org/debian unstable/main amd64 libf2c2-dev amd64 20130926-3 [129 kB]
Fetched 29.3 MB in 2s (12.1 MB/s)
Selecting previously unselected package libbsd0:amd64.
(Reading database ... (Reading database ... 5%(Reading database ... 10%(Reading database ... 15%(Reading database ... 20%(Reading database ... 25%(Reading database ... 30%(Reading database ... 35%(Reading database ... 40%(Reading database ... 45%(Reading database ... 50%(Reading database ... 55%(Reading database ... 60%(Reading database ... 65%(Reading database ... 70%(Reading database ... 75%(Reading database ... 80%(Reading database ... 85%(Reading database ... 90%(Reading database ... 95%(Reading database ... 100%(Reading database ... 15062 files and directories currently installed.)
Preparing to unpack .../00-libbsd0_0.9.1-1_amd64.deb ...
Unpacking libbsd0:amd64 (0.9.1-1) ...
Selecting previously unselected package bsdmainutils.
Preparing to unpack .../01-bsdmainutils_11.1.2+b1_amd64.deb ...
Unpacking bsdmainutils (11.1.2+b1) ...
Selecting previously unselected package groff-base.
Preparing to unpack .../02-groff-base_1.22.3-10_amd64.deb ...
Unpacking groff-base (1.22.3-10) ...
Selecting previously unselected package libpipeline1:amd64.
Preparing to unpack .../03-libpipeline1_1.5.0-1_amd64.deb ...
Unpacking libpipeline1:amd64 (1.5.0-1) ...
Selecting previously unselected package man-db.
Preparing to unpack .../04-man-db_2.8.4-2_amd64.deb ...
Unpacking man-db (2.8.4-2) ...
Selecting previously unselected package libmagic-mgc.
Preparing to unpack .../05-libmagic-mgc_1%3a5.34-2_amd64.deb ...
Unpacking libmagic-mgc (1:5.34-2) ...
Selecting previously unselected package libmagic1:amd64.
Preparing to unpack .../06-libmagic1_1%3a5.34-2_amd64.deb ...
Unpacking libmagic1:amd64 (1:5.34-2) ...
Selecting previously unselected package file.
Preparing to unpack .../07-file_1%3a5.34-2_amd64.deb ...
Unpacking file (1:5.34-2) ...
Selecting previously unselected package gettext-base.
Preparing to unpack .../08-gettext-base_0.19.8.1-7_amd64.deb ...
Unpacking gettext-base (0.19.8.1-7) ...
Selecting previously unselected package libsigsegv2:amd64.
Preparing to unpack .../09-libsigsegv2_2.12-2_amd64.deb ...
Unpacking libsigsegv2:amd64 (2.12-2) ...
Selecting previously unselected package m4.
Preparing to unpack .../10-m4_1.4.18-1_amd64.deb ...
Unpacking m4 (1.4.18-1) ...
Selecting previously unselected package autoconf.
Preparing to unpack .../11-autoconf_2.69-11_all.deb ...
Unpacking autoconf (2.69-11) ...
Selecting previously unselected package autotools-dev.
Preparing to unpack .../12-autotools-dev_20180224.1_all.deb ...
Unpacking autotools-dev (20180224.1) ...
Selecting previously unselected package automake.
Preparing to unpack .../13-automake_1%3a1.16.1-1.1_all.deb ...
Unpacking automake (1:1.16.1-1.1) ...
Selecting previously unselected package autopoint.
Preparing to unpack .../14-autopoint_0.19.8.1-7_all.deb ...
Unpacking autopoint (0.19.8.1-7) ...
Selecting previously unselected package libtool.
Preparing to unpack .../15-libtool_2.4.6-4_all.deb ...
Unpacking libtool (2.4.6-4) ...
Selecting previously unselected package dh-autoreconf.
Preparing to unpack .../16-dh-autoreconf_19_all.deb ...
Unpacking dh-autoreconf (19) ...
Selecting previously unselected package libarchive-zip-perl.
Preparing to unpack .../17-libarchive-zip-perl_1.64-1_all.deb ...
Unpacking libarchive-zip-perl (1.64-1) ...
Selecting previously unselected package libfile-stripnondeterminism-perl.
Preparing to unpack .../18-libfile-stripnondeterminism-perl_0.042-1_all.deb ...
Unpacking libfile-stripnondeterminism-perl (0.042-1) ...
Selecting previously unselected package libtimedate-perl.
Preparing to unpack .../19-libtimedate-perl_2.3000-2_all.deb ...
Unpacking libtimedate-perl (2.3000-2) ...
Selecting previously unselected package dh-strip-nondeterminism.
Preparing to unpack .../20-dh-strip-nondeterminism_0.042-1_all.deb ...
Unpacking dh-strip-nondeterminism (0.042-1) ...
Selecting previously unselected package dwz.
Preparing to unpack .../21-dwz_0.12-2_amd64.deb ...
Unpacking dwz (0.12-2) ...
Selecting previously unselected package libglib2.0-0:amd64.
Preparing to unpack .../22-libglib2.0-0_2.58.1-2_amd64.deb ...
Unpacking libglib2.0-0:amd64 (2.58.1-2) ...
Selecting previously unselected package libpng16-16:amd64.
Preparing to unpack .../23-libpng16-16_1.6.34-2_amd64.deb ...
Unpacking libpng16-16:amd64 (1.6.34-2) ...
Selecting previously unselected package libfreetype6:amd64.
Preparing to unpack .../24-libfreetype6_2.8.1-2_amd64.deb ...
Unpacking libfreetype6:amd64 (2.8.1-2) ...
Selecting previously unselected package libgraphite2-3:amd64.
Preparing to unpack .../25-libgraphite2-3_1.3.12-1_amd64.deb ...
Unpacking libgraphite2-3:amd64 (1.3.12-1) ...
Selecting previously unselected package libharfbuzz0b:amd64.
Preparing to unpack .../26-libharfbuzz0b_1.9.0-1_amd64.deb ...
Unpacking libharfbuzz0b:amd64 (1.9.0-1) ...
Selecting previously unselected package libicu-le-hb0:amd64.
Preparing to unpack .../27-libicu-le-hb0_1.0.3+git161113-5_amd64.deb ...
Unpacking libicu-le-hb0:amd64 (1.0.3+git161113-5) ...
Selecting previously unselected package libicu60:amd64.
Preparing to unpack .../28-libicu60_60.2-6_amd64.deb ...
Unpacking libicu60:amd64 (60.2-6) ...
Selecting previously unselected package libxml2:amd64.
Preparing to unpack .../29-libxml2_2.9.4+dfsg1-7+b1_amd64.deb ...
Unpacking libxml2:amd64 (2.9.4+dfsg1-7+b1) ...
Selecting previously unselected package libcroco3:amd64.
Preparing to unpack .../30-libcroco3_0.6.12-2_amd64.deb ...
Unpacking libcroco3:amd64 (0.6.12-2) ...
Selecting previously unselected package libncurses6:amd64.
Preparing to unpack .../31-libncurses6_6.1+20180714-1_amd64.deb ...
Unpacking libncurses6:amd64 (6.1+20180714-1) ...
Selecting previously unselected package gettext.
Preparing to unpack .../32-gettext_0.19.8.1-7_amd64.deb ...
Unpacking gettext (0.19.8.1-7) ...
Selecting previously unselected package intltool-debian.
Preparing to unpack .../33-intltool-debian_0.35.0+20060710.4_all.deb ...
Unpacking intltool-debian (0.35.0+20060710.4) ...
Selecting previously unselected package po-debconf.
Preparing to unpack .../34-po-debconf_1.0.20_all.deb ...
Unpacking po-debconf (1.0.20) ...
Selecting previously unselected package debhelper.
Preparing to unpack .../35-debhelper_11.4_all.deb ...
Unpacking debhelper (11.4) ...
Selecting previously unselected package libboost-system1.62.0:amd64.
Preparing to unpack .../36-libboost-system1.62.0_1.62.0+dfsg-10_amd64.deb ...
Unpacking libboost-system1.62.0:amd64 (1.62.0+dfsg-10) ...
Selecting previously unselected package libboost-chrono1.62.0:amd64.
Preparing to unpack .../37-libboost-chrono1.62.0_1.62.0+dfsg-10_amd64.deb ...
Unpacking libboost-chrono1.62.0:amd64 (1.62.0+dfsg-10) ...
Selecting previously unselected package libboost1.62-dev:amd64.
Preparing to unpack .../38-libboost1.62-dev_1.62.0+dfsg-10_amd64.deb ...
Unpacking libboost1.62-dev:amd64 (1.62.0+dfsg-10) ...
Selecting previously unselected package libboost-dev:amd64.
Preparing to unpack .../39-libboost-dev_1.62.0.1_amd64.deb ...
Unpacking libboost-dev:amd64 (1.62.0.1) ...
Selecting previously unselected package libboost-regex1.62.0:amd64.
Preparing to unpack .../40-libboost-regex1.62.0_1.62.0+dfsg-10_amd64.deb ...
Unpacking libboost-regex1.62.0:amd64 (1.62.0+dfsg-10) ...
Selecting previously unselected package libboost-graph1.62.0:amd64.
Preparing to unpack .../41-libboost-graph1.62.0_1.62.0+dfsg-10_amd64.deb ...
Unpacking libboost-graph1.62.0:amd64 (1.62.0+dfsg-10) ...
Selecting previously unselected package libboost-serialization1.62.0:amd64.
Preparing to unpack .../42-libboost-serialization1.62.0_1.62.0+dfsg-10_amd64.deb ...
Unpacking libboost-serialization1.62.0:amd64 (1.62.0+dfsg-10) ...
Selecting previously unselected package libboost-serialization1.62-dev:amd64.
Preparing to unpack .../43-libboost-serialization1.62-dev_1.62.0+dfsg-10_amd64.deb ...
Unpacking libboost-serialization1.62-dev:amd64 (1.62.0+dfsg-10) ...
Selecting previously unselected package libboost-timer1.62.0:amd64.
Preparing to unpack .../44-libboost-timer1.62.0_1.62.0+dfsg-10_amd64.deb ...
Unpacking libboost-timer1.62.0:amd64 (1.62.0+dfsg-10) ...
Selecting previously unselected package libboost-test1.62.0:amd64.
Preparing to unpack .../45-libboost-test1.62.0_1.62.0+dfsg-10_amd64.deb ...
Unpacking libboost-test1.62.0:amd64 (1.62.0+dfsg-10) ...
Selecting previously unselected package libboost-test1.62-dev:amd64.
Preparing to unpack .../46-libboost-test1.62-dev_1.62.0+dfsg-10_amd64.deb ...
Unpacking libboost-test1.62-dev:amd64 (1.62.0+dfsg-10) ...
Selecting previously unselected package libboost-graph1.62-dev:amd64.
Preparing to unpack .../47-libboost-graph1.62-dev_1.62.0+dfsg-10_amd64.deb ...
Unpacking libboost-graph1.62-dev:amd64 (1.62.0+dfsg-10) ...
Selecting previously unselected package libboost-graph-dev:amd64.
Preparing to unpack .../48-libboost-graph-dev_1.62.0.1_amd64.deb ...
Unpacking libboost-graph-dev:amd64 (1.62.0.1) ...
Selecting previously unselected package libf2c2:amd64.
Preparing to unpack .../49-libf2c2_20130926-3_amd64.deb ...
Unpacking libf2c2:amd64 (20130926-3) ...
Selecting previously unselected package libf2c2-dev.
Preparing to unpack .../50-libf2c2-dev_20130926-3_amd64.deb ...
Unpacking libf2c2-dev (20130926-3) ...
Setting up libboost-serialization1.62.0:amd64 (1.62.0+dfsg-10) ...
Setting up libarchive-zip-perl (1.64-1) ...
Setting up libboost1.62-dev:amd64 (1.62.0+dfsg-10) ...
Setting up libpng16-16:amd64 (1.6.34-2) ...
Setting up libtimedate-perl (2.3000-2) ...
Setting up libsigsegv2:amd64 (2.12-2) ...
Setting up groff-base (1.22.3-10) ...
Setting up libglib2.0-0:amd64 (2.58.1-2) ...
No schema files found: doing nothing.
Setting up gettext-base (0.19.8.1-7) ...
Setting up libpipeline1:amd64 (1.5.0-1) ...
Setting up m4 (1.4.18-1) ...
Setting up libbsd0:amd64 (0.9.1-1) ...
Setting up libboost-serialization1.62-dev:amd64 (1.62.0+dfsg-10) ...
Setting up libfreetype6:amd64 (2.8.1-2) ...
Setting up libmagic-mgc (1:5.34-2) ...
Setting up libmagic1:amd64 (1:5.34-2) ...
Setting up libgraphite2-3:amd64 (1.3.12-1) ...
Processing triggers for libc-bin (2.27-6) ...
Setting up dwz (0.12-2) ...
Setting up autotools-dev (20180224.1) ...
Setting up libboost-dev:amd64 (1.62.0.1) ...
Setting up bsdmainutils (11.1.2+b1) ...
update-alternatives: using /usr/bin/bsd-write to provide /usr/bin/write (write) in auto mode
update-alternatives: using /usr/bin/bsd-from to provide /usr/bin/from (from) in auto mode
Setting up libf2c2:amd64 (20130926-3) ...
Setting up libncurses6:amd64 (6.1+20180714-1) ...
Setting up autopoint (0.19.8.1-7) ...
Setting up libboost-system1.62.0:amd64 (1.62.0+dfsg-10) ...
Setting up libfile-stripnondeterminism-perl (0.042-1) ...
Setting up libf2c2-dev (20130926-3) ...
Setting up libharfbuzz0b:amd64 (1.9.0-1) ...
Setting up autoconf (2.69-11) ...
Setting up file (1:5.34-2) ...
Setting up automake (1:1.16.1-1.1) ...
update-alternatives: using /usr/bin/automake-1.16 to provide /usr/bin/automake (automake) in auto mode
Setting up man-db (2.8.4-2) ...
debconf: unable to initialize frontend: Dialog
debconf: (TERM is not set, so the dialog frontend is not usable.)
debconf: falling back to frontend: Readline
Building database of manual pages ...
Setting up libboost-chrono1.62.0:amd64 (1.62.0+dfsg-10) ...
Setting up libtool (2.4.6-4) ...
Setting up libboost-timer1.62.0:amd64 (1.62.0+dfsg-10) ...
Setting up libboost-test1.62.0:amd64 (1.62.0+dfsg-10) ...
Setting up libboost-test1.62-dev:amd64 (1.62.0+dfsg-10) ...
Setting up dh-autoreconf (19) ...
Setting up libicu-le-hb0:amd64 (1.0.3+git161113-5) ...
Setting up dh-strip-nondeterminism (0.042-1) ...
Setting up libicu60:amd64 (60.2-6) ...
Setting up libboost-regex1.62.0:amd64 (1.62.0+dfsg-10) ...
Setting up libxml2:amd64 (2.9.4+dfsg1-7+b1) ...
Setting up libcroco3:amd64 (0.6.12-2) ...
Setting up gettext (0.19.8.1-7) ...
Setting up libboost-graph1.62.0:amd64 (1.62.0+dfsg-10) ...
Setting up libboost-graph1.62-dev:amd64 (1.62.0+dfsg-10) ...
Setting up intltool-debian (0.35.0+20060710.4) ...
Setting up po-debconf (1.0.20) ...
Setting up libboost-graph-dev:amd64 (1.62.0.1) ...
Setting up debhelper (11.4) ...
Processing triggers for libc-bin (2.27-6) ...
Reading package lists...
NOTICE: 'disulfinder' packaging is maintained in the 'Git' version control system at:
https://anonscm.debian.org/git/debian-med/disulfinder.git
Please use:
git clone https://anonscm.debian.org/git/debian-med/disulfinder.git
to retrieve the latest (possibly unreleased) updates to the package.
Need to get 2490 kB of source archives.
Get:1 http://deb.debian.org/debian unstable/main disulfinder 1.2.11-7 (dsc) [2200 B]
Get:2 http://deb.debian.org/debian unstable/main disulfinder 1.2.11-7 (tar) [2481 kB]
Get:3 http://deb.debian.org/debian unstable/main disulfinder 1.2.11-7 (diff) [7416 B]
dpkg-source: info: extracting disulfinder in disulfinder-1.2.11
dpkg-source: info: unpacking disulfinder_1.2.11.orig.tar.gz
dpkg-source: info: unpacking disulfinder_1.2.11-7.debian.tar.xz
dpkg-source: info: applying hardening.patch
dpkg-source: info: applying variable_length_array
dpkg-source: info: applying unknown_escape
dpkg-source: info: applying gcc-6.patch
dpkg-source: info: applying gcc-7.patch
Fetched 2490 kB in 0s (149 MB/s)
dpkg-buildpackage: info: source package disulfinder
dpkg-buildpackage: info: source version 1.2.11-7
dpkg-buildpackage: info: source distribution unstable
dpkg-buildpackage: info: source changed by Andreas Tille <tille@debian.org>
dpkg-buildpackage: info: host architecture amd64
dh clean
   dh_auto_clean
	make -j8 distclean
make[1]: Entering directory '/home/builder/disulfinder-1.2.11'
if [ -e "disulfind/src/Makefile" ]; then make -C disulfind/src clean; fi
make[2]: Entering directory '/home/builder/disulfinder-1.2.11/disulfind/src'
make -C NN clean
make -C Common clean
make -C SVM clean
make[3]: Entering directory '/home/builder/disulfinder-1.2.11/disulfind/src/NN'
rm -f *~ *.o brnn-train brnn-test
make[3]: Entering directory '/home/builder/disulfinder-1.2.11/disulfind/src/Common'
make -C eig clean
make[3]: Entering directory '/home/builder/disulfinder-1.2.11/disulfind/src/SVM'
rm *~ *.o *.a *.exe SVMClassifier -f 
make[4]: Entering directory '/home/builder/disulfinder-1.2.11/disulfind/src/Common/eig'
rm *.o libeig.a *~ -f 
make[3]: Leaving directory '/home/builder/disulfinder-1.2.11/disulfind/src/NN'
make[3]: Leaving directory '/home/builder/disulfinder-1.2.11/disulfind/src/SVM'
make[4]: Leaving directory '/home/builder/disulfinder-1.2.11/disulfind/src/Common/eig'
rm *.o libCommon.a Eig Norm *~ -f 
make[3]: Leaving directory '/home/builder/disulfinder-1.2.11/disulfind/src/Common'
cd SVM && make clean
make[3]: Entering directory '/home/builder/disulfinder-1.2.11/disulfind/src/SVM'
rm *~ *.o *.a *.exe SVMClassifier -f 
make[3]: Leaving directory '/home/builder/disulfinder-1.2.11/disulfind/src/SVM'
cd Input && make clean
make[3]: Entering directory '/home/builder/disulfinder-1.2.11/disulfind/src/Input'
rm *.o makeWindow makeSparseVector globalDescriptor createKernelDataset createBRNNDataset buildXfolds *~ -f 
make[3]: Leaving directory '/home/builder/disulfinder-1.2.11/disulfind/src/Input'
cd Output && make clean
make[3]: Entering directory '/home/builder/disulfinder-1.2.11/disulfind/src/Output'
rm *.o makeASCIIOutput makeHTMLOutput *~ -f 
make[3]: Leaving directory '/home/builder/disulfinder-1.2.11/disulfind/src/Output'
cd FSA-Alignment && make clean
make[3]: Entering directory '/home/builder/disulfinder-1.2.11/disulfind/src/FSA-Alignment'
rm *.o fold_automata viterbi_aligner timed_transitions *~ -f 
make[3]: Leaving directory '/home/builder/disulfinder-1.2.11/disulfind/src/FSA-Alignment'
cd BRNN && make clean
make[3]: Entering directory '/home/builder/disulfinder-1.2.11/disulfind/src/BRNN'
rm -f *.o core
rm -f ./RNNs/*.o ./RNNs/core disulfind-conn 
make[3]: Leaving directory '/home/builder/disulfinder-1.2.11/disulfind/src/BRNN'
rm disulfinder disultrainer *.o *~ -f 
make[2]: Leaving directory '/home/builder/disulfinder-1.2.11/disulfind/src'
rm -f *.[12345678] *.[12345678].gz
#if [ -d "disulfind" ]; then rm -rf disulfind; fi
if [ -d "disulfinder-1.2.11" ]; then rm -rf "disulfinder-1.2.11"; fi
rm -rf	patch-stamp \
	initial-clean-stamp \
	"disulfinder-1.2.11.tar.gz" \
	.pc
make[1]: Leaving directory '/home/builder/disulfinder-1.2.11'
   dh_clean
	rm -f debian/debhelper-build-stamp
	rm -rf debian/.debhelper/
	rm -f -- debian/disulfinder.substvars debian/disulfinder-data.substvars debian/files
	rm -fr -- debian/disulfinder/ debian/tmp/ debian/disulfinder-data/
	find .  \( \( \
		\( -path .\*/.git -o -path .\*/.svn -o -path .\*/.bzr -o -path .\*/.hg -o -path .\*/CVS -o -path .\*/.pc -o -path .\*/_darcs \) -prune -o -type f -a \
	        \( -name '#*#' -o -name '.*~' -o -name '*~' -o -name DEADJOE \
		 -o -name '*.orig' -o -name '*.rej' -o -name '*.bak' \
		 -o -name '.*.orig' -o -name .*.rej -o -name '.SUMS' \
		 -o -name TAGS -o \( -path '*/.deps/*' -a -name '*.P' \) \
		\) -exec rm -f {} + \) -o \
		\( -type d -a -name autom4te.cache -prune -exec rm -rf {} + \) \)
dpkg-source: info: using source format '3.0 (quilt)'
dpkg-source: info: building disulfinder using existing ./disulfinder_1.2.11.orig.tar.gz
dpkg-source: info: building disulfinder in disulfinder_1.2.11-7.debian.tar.xz
dpkg-source: info: building disulfinder in disulfinder_1.2.11-7.dsc
dh build
   dh_update_autotools_config
   dh_autoreconf
   dh_auto_configure
   debian/rules override_dh_auto_build
make[1]: Entering directory '/home/builder/disulfinder-1.2.11'
dh_auto_build --no-parallel
	make -j1
make[2]: Entering directory '/home/builder/disulfinder-1.2.11'
make -C disulfind/src disulfinder
make[3]: Entering directory '/home/builder/disulfinder-1.2.11/disulfind/src'
g++ -Wdate-time -D_FORTIFY_SOURCE=2 -g -O2 -fdebug-prefix-map=/home/builder/disulfinder-1.2.11=. -fstack-protector-strong -Wformat -Werror=format-security -DDEFAULT_PKGDATADIR=\"/usr/share/disulfinder\" -O3 -Wall -Wno-deprecated -IBRNN/RNNs -c Input/GlobalDescriptor.cpp -o Input/GlobalDescriptor.o
g++ -Wdate-time -D_FORTIFY_SOURCE=2 -g -O2 -fdebug-prefix-map=/home/builder/disulfinder-1.2.11=. -fstack-protector-strong -Wformat -Werror=format-security -DDEFAULT_PKGDATADIR=\"/usr/share/disulfinder\" -O3 -Wall -Wno-deprecated -IBRNN/RNNs -c Input/createBRNNDataset.cpp -o Input/createBRNNDataset.o
g++ -Wdate-time -D_FORTIFY_SOURCE=2 -g -O2 -fdebug-prefix-map=/home/builder/disulfinder-1.2.11=. -fstack-protector-strong -Wformat -Werror=format-security -DDEFAULT_PKGDATADIR=\"/usr/share/disulfinder\" -O3 -Wall -Wno-deprecated -IBRNN/RNNs -c Input/createKernelDataset.cpp -o Input/createKernelDataset.o
g++ -Wdate-time -D_FORTIFY_SOURCE=2 -g -O2 -fdebug-prefix-map=/home/builder/disulfinder-1.2.11=. -fstack-protector-strong -Wformat -Werror=format-security -DDEFAULT_PKGDATADIR=\"/usr/share/disulfinder\" -O3 -Wall -Wno-deprecated -IBRNN/RNNs -c Input/makeWindow.cpp -o Input/makeWindow.o
g++ -Wdate-time -D_FORTIFY_SOURCE=2 -g -O2 -fdebug-prefix-map=/home/builder/disulfinder-1.2.11=. -fstack-protector-strong -Wformat -Werror=format-security -DDEFAULT_PKGDATADIR=\"/usr/share/disulfinder\" -O3 -Wall -Wno-deprecated -IBRNN/RNNs -c Input/makeSparseVector.cpp -o Input/makeSparseVector.o
g++ -Wdate-time -D_FORTIFY_SOURCE=2 -g -O2 -fdebug-prefix-map=/home/builder/disulfinder-1.2.11=. -fstack-protector-strong -Wformat -Werror=format-security -DDEFAULT_PKGDATADIR=\"/usr/share/disulfinder\" -O3 -Wall -Wno-deprecated -IBRNN/RNNs -c Input/Protein.cpp -o Input/Protein.o
g++ -Wdate-time -D_FORTIFY_SOURCE=2 -g -O2 -fdebug-prefix-map=/home/builder/disulfinder-1.2.11=. -fstack-protector-strong -Wformat -Werror=format-security -DDEFAULT_PKGDATADIR=\"/usr/share/disulfinder\" -O3 -Wall -Wno-deprecated -IBRNN/RNNs -c Input/buildXfolds.cpp -o Input/buildXfolds.o
g++ -Wdate-time -D_FORTIFY_SOURCE=2 -g -O2 -fdebug-prefix-map=/home/builder/disulfinder-1.2.11=. -fstack-protector-strong -Wformat -Werror=format-security -DDEFAULT_PKGDATADIR=\"/usr/share/disulfinder\" -O3 -Wall -Wno-deprecated -IBRNN/RNNs -c SVM/SVMClassifier.cpp -o SVM/SVMClassifier.o
g++ -Wdate-time -D_FORTIFY_SOURCE=2 -g -O2 -fdebug-prefix-map=/home/builder/disulfinder-1.2.11=. -fstack-protector-strong -Wformat -Werror=format-security -DDEFAULT_PKGDATADIR=\"/usr/share/disulfinder\" -O3 -Wall -Wno-deprecated -IBRNN/RNNs -c Output/makeHTMLOutput.cpp -o Output/makeHTMLOutput.o
g++ -Wdate-time -D_FORTIFY_SOURCE=2 -g -O2 -fdebug-prefix-map=/home/builder/disulfinder-1.2.11=. -fstack-protector-strong -Wformat -Werror=format-security -DDEFAULT_PKGDATADIR=\"/usr/share/disulfinder\" -O3 -Wall -Wno-deprecated -IBRNN/RNNs -c Output/utils.cpp -o Output/utils.o
g++ -Wdate-time -D_FORTIFY_SOURCE=2 -g -O2 -fdebug-prefix-map=/home/builder/disulfinder-1.2.11=. -fstack-protector-strong -Wformat -Werror=format-security -DDEFAULT_PKGDATADIR=\"/usr/share/disulfinder\" -O3 -Wall -Wno-deprecated -IBRNN/RNNs -c Output/makeASCIIOutput.cpp -o Output/makeASCIIOutput.o
g++ -Wdate-time -D_FORTIFY_SOURCE=2 -g -O2 -fdebug-prefix-map=/home/builder/disulfinder-1.2.11=. -fstack-protector-strong -Wformat -Werror=format-security -DDEFAULT_PKGDATADIR=\"/usr/share/disulfinder\" -O3 -Wall -Wno-deprecated -IBRNN/RNNs -c FSA-Alignment/fsa.cpp -o FSA-Alignment/fsa.o
g++ -Wdate-time -D_FORTIFY_SOURCE=2 -g -O2 -fdebug-prefix-map=/home/builder/disulfinder-1.2.11=. -fstack-protector-strong -Wformat -Werror=format-security -DDEFAULT_PKGDATADIR=\"/usr/share/disulfinder\" -O3 -Wall -Wno-deprecated -IBRNN/RNNs -c FSA-Alignment/viterbi_aligner.cpp -o FSA-Alignment/viterbi_aligner.o
g++ -Wdate-time -D_FORTIFY_SOURCE=2 -g -O2 -fdebug-prefix-map=/home/builder/disulfinder-1.2.11=. -fstack-protector-strong -Wformat -Werror=format-security -DDEFAULT_PKGDATADIR=\"/usr/share/disulfinder\" -O3 -Wall -Wno-deprecated -IBRNN/RNNs -c NN/multi-array.cpp -o NN/multi-array.o
g++ -Wdate-time -D_FORTIFY_SOURCE=2 -g -O2 -fdebug-prefix-map=/home/builder/disulfinder-1.2.11=. -fstack-protector-strong -Wformat -Werror=format-security -DDEFAULT_PKGDATADIR=\"/usr/share/disulfinder\" -O3 -Wall -Wno-deprecated -IBRNN/RNNs -c NN/array.cpp -o NN/array.o
g++ -Wdate-time -D_FORTIFY_SOURCE=2 -g -O2 -fdebug-prefix-map=/home/builder/disulfinder-1.2.11=. -fstack-protector-strong -Wformat -Werror=format-security -DDEFAULT_PKGDATADIR=\"/usr/share/disulfinder\" -O3 -Wall -Wno-deprecated -IBRNN/RNNs -c NN/brnn-model.cpp -o NN/brnn-model.o
g++ -Wdate-time -D_FORTIFY_SOURCE=2 -g -O2 -fdebug-prefix-map=/home/builder/disulfinder-1.2.11=. -fstack-protector-strong -Wformat -Werror=format-security -DDEFAULT_PKGDATADIR=\"/usr/share/disulfinder\" -O3 -Wall -Wno-deprecated -IBRNN/RNNs -c NN/brnn-test.cpp -o NN/brnn-test.o
g++ -Wdate-time -D_FORTIFY_SOURCE=2 -g -O2 -fdebug-prefix-map=/home/builder/disulfinder-1.2.11=. -fstack-protector-strong -Wformat -Werror=format-security -DDEFAULT_PKGDATADIR=\"/usr/share/disulfinder\" -O3 -Wall -Wno-deprecated -IBRNN/RNNs -c BRNN/RNNs/Node.cpp -o BRNN/RNNs/Node.o
g++ -Wdate-time -D_FORTIFY_SOURCE=2 -g -O2 -fdebug-prefix-map=/home/builder/disulfinder-1.2.11=. -fstack-protector-strong -Wformat -Werror=format-security -DDEFAULT_PKGDATADIR=\"/usr/share/disulfinder\" -O3 -Wall -Wno-deprecated -IBRNN/RNNs -c BRNN/RNNs/StructureSearch.cpp -o BRNN/RNNs/StructureSearch.o
g++ -Wdate-time -D_FORTIFY_SOURCE=2 -g -O2 -fdebug-prefix-map=/home/builder/disulfinder-1.2.11=. -fstack-protector-strong -Wformat -Werror=format-security -DDEFAULT_PKGDATADIR=\"/usr/share/disulfinder\" -O3 -Wall -Wno-deprecated -IBRNN/RNNs -c BRNN/RNNs/DataSet.cpp -o BRNN/RNNs/DataSet.o
g++ -Wdate-time -D_FORTIFY_SOURCE=2 -g -O2 -fdebug-prefix-map=/home/builder/disulfinder-1.2.11=. -fstack-protector-strong -Wformat -Werror=format-security -DDEFAULT_PKGDATADIR=\"/usr/share/disulfinder\" -O3 -Wall -Wno-deprecated -IBRNN/RNNs -c BRNN/RNNs/DPAG.cpp -o BRNN/RNNs/DPAG.o
g++ -Wdate-time -D_FORTIFY_SOURCE=2 -g -O2 -fdebug-prefix-map=/home/builder/disulfinder-1.2.11=. -fstack-protector-strong -Wformat -Werror=format-security -DDEFAULT_PKGDATADIR=\"/usr/share/disulfinder\" -O3 -Wall -Wno-deprecated -IBRNN/RNNs -c BRNN/RNNs/Options.cpp -o BRNN/RNNs/Options.o
g++ -Wdate-time -D_FORTIFY_SOURCE=2 -g -O2 -fdebug-prefix-map=/home/builder/disulfinder-1.2.11=. -fstack-protector-strong -Wformat -Werror=format-security -DDEFAULT_PKGDATADIR=\"/usr/share/disulfinder\" -O3 -Wall -Wno-deprecated -IBRNN/RNNs -c BRNN/protein_util.cpp -o BRNN/protein_util.o
g++ -Wdate-time -D_FORTIFY_SOURCE=2 -g -O2 -fdebug-prefix-map=/home/builder/disulfinder-1.2.11=. -fstack-protector-strong -Wformat -Werror=format-security -DDEFAULT_PKGDATADIR=\"/usr/share/disulfinder\" -O3 -Wall -Wno-deprecated -IBRNN/RNNs -c BRNN/blast_util.cpp -o BRNN/blast_util.o
g++ -Wdate-time -D_FORTIFY_SOURCE=2 -g -O2 -fdebug-prefix-map=/home/builder/disulfinder-1.2.11=. -fstack-protector-strong -Wformat -Werror=format-security -DDEFAULT_PKGDATADIR=\"/usr/share/disulfinder\" -O3 -Wall -Wno-deprecated -IBRNN/RNNs -c BRNN/rnn_util.cpp -o BRNN/rnn_util.o
make -C Common lib
make[4]: Entering directory '/home/builder/disulfinder-1.2.11/disulfind/src/Common'
g++ -Wdate-time -D_FORTIFY_SOURCE=2 -g -O2 -fdebug-prefix-map=/home/builder/disulfinder-1.2.11=. -fstack-protector-strong -Wformat -Werror=format-security -DDEFAULT_PKGDATADIR=\"/usr/share/disulfinder\" -O3 -Wall -Wno-deprecated -IBRNN/RNNs -O3 -Wall -Wno-deprecated -c Vector.cpp -o Vector.o
g++ -Wdate-time -D_FORTIFY_SOURCE=2 -g -O2 -fdebug-prefix-map=/home/builder/disulfinder-1.2.11=. -fstack-protector-strong -Wformat -Werror=format-security -DDEFAULT_PKGDATADIR=\"/usr/share/disulfinder\" -O3 -Wall -Wno-deprecated -IBRNN/RNNs -O3 -Wall -Wno-deprecated -c Util.cpp -o Util.o
g++ -Wdate-time -D_FORTIFY_SOURCE=2 -g -O2 -fdebug-prefix-map=/home/builder/disulfinder-1.2.11=. -fstack-protector-strong -Wformat -Werror=format-security -DDEFAULT_PKGDATADIR=\"/usr/share/disulfinder\" -O3 -Wall -Wno-deprecated -IBRNN/RNNs -O3 -Wall -Wno-deprecated -c CommonMethods.cpp -o CommonMethods.o
g++ -Wdate-time -D_FORTIFY_SOURCE=2 -g -O2 -fdebug-prefix-map=/home/builder/disulfinder-1.2.11=. -fstack-protector-strong -Wformat -Werror=format-security -DDEFAULT_PKGDATADIR=\"/usr/share/disulfinder\" -O3 -Wall -Wno-deprecated -IBRNN/RNNs -O3 -Wall -Wno-deprecated -c ConfusionMatrix.cpp -o ConfusionMatrix.o
g++ -Wdate-time -D_FORTIFY_SOURCE=2 -g -O2 -fdebug-prefix-map=/home/builder/disulfinder-1.2.11=. -fstack-protector-strong -Wformat -Werror=format-security -DDEFAULT_PKGDATADIR=\"/usr/share/disulfinder\" -O3 -Wall -Wno-deprecated -IBRNN/RNNs -O3 -Wall -Wno-deprecated -c Exception.cpp -o Exception.o
g++ -Wdate-time -D_FORTIFY_SOURCE=2 -g -O2 -fdebug-prefix-map=/home/builder/disulfinder-1.2.11=. -fstack-protector-strong -Wformat -Werror=format-security -DDEFAULT_PKGDATADIR=\"/usr/share/disulfinder\" -O3 -Wall -Wno-deprecated -IBRNN/RNNs -O3 -Wall -Wno-deprecated -c Statistics.cpp -o Statistics.o
cc -g -O2 -fdebug-prefix-map=/home/builder/disulfinder-1.2.11=. -fstack-protector-strong -Wformat -Werror=format-security -Wdate-time -D_FORTIFY_SOURCE=2  -c -o eig/balanc.o eig/balanc.c
cc -g -O2 -fdebug-prefix-map=/home/builder/disulfinder-1.2.11=. -fstack-protector-strong -Wformat -Werror=format-security -Wdate-time -D_FORTIFY_SOURCE=2  -c -o eig/balbak.o eig/balbak.c
cc -g -O2 -fdebug-prefix-map=/home/builder/disulfinder-1.2.11=. -fstack-protector-strong -Wformat -Werror=format-security -Wdate-time -D_FORTIFY_SOURCE=2  -c -o eig/cdiv.o eig/cdiv.c
cc -g -O2 -fdebug-prefix-map=/home/builder/disulfinder-1.2.11=. -fstack-protector-strong -Wformat -Werror=format-security -Wdate-time -D_FORTIFY_SOURCE=2  -c -o eig/elmhes.o eig/elmhes.c
cc -g -O2 -fdebug-prefix-map=/home/builder/disulfinder-1.2.11=. -fstack-protector-strong -Wformat -Werror=format-security -Wdate-time -D_FORTIFY_SOURCE=2  -c -o eig/eltran.o eig/eltran.c
cc -g -O2 -fdebug-prefix-map=/home/builder/disulfinder-1.2.11=. -fstack-protector-strong -Wformat -Werror=format-security -Wdate-time -D_FORTIFY_SOURCE=2  -c -o eig/hqr.o eig/hqr.c
cc -g -O2 -fdebug-prefix-map=/home/builder/disulfinder-1.2.11=. -fstack-protector-strong -Wformat -Werror=format-security -Wdate-time -D_FORTIFY_SOURCE=2  -c -o eig/hqr2.o eig/hqr2.c
cc -g -O2 -fdebug-prefix-map=/home/builder/disulfinder-1.2.11=. -fstack-protector-strong -Wformat -Werror=format-security -Wdate-time -D_FORTIFY_SOURCE=2  -c -o eig/rg.o eig/rg.c
g++ -Wdate-time -D_FORTIFY_SOURCE=2 -g -O2 -fdebug-prefix-map=/home/builder/disulfinder-1.2.11=. -fstack-protector-strong -Wformat -Werror=format-security -DDEFAULT_PKGDATADIR=\"/usr/share/disulfinder\" -O3 -Wall -Wno-deprecated -IBRNN/RNNs -O3 -Wall -Wno-deprecated -c coords.cpp -o coords.o
cc -g -O2 -fdebug-prefix-map=/home/builder/disulfinder-1.2.11=. -fstack-protector-strong -Wformat -Werror=format-security -Wdate-time -D_FORTIFY_SOURCE=2  -c -o eig/d_sign.o eig/d_sign.c
ar rvs libCommon.a Vector.o Util.o CommonMethods.o ConfusionMatrix.o Exception.o Statistics.o eig/balanc.o eig/balbak.o eig/cdiv.o eig/elmhes.o eig/eltran.o eig/hqr.o eig/hqr2.o eig/rg.o coords.o eig/d_sign.o
a - Vector.o
a - Util.o
a - CommonMethods.o
a - ConfusionMatrix.o
a - Exception.o
a - Statistics.o
a - eig/balanc.o
a - eig/balbak.o
a - eig/cdiv.o
a - eig/elmhes.o
a - eig/eltran.o
a - eig/hqr.o
a - eig/hqr2.o
a - eig/rg.o
a - coords.o
a - eig/d_sign.o
make[4]: Leaving directory '/home/builder/disulfinder-1.2.11/disulfind/src/Common'
g++ -Wdate-time -D_FORTIFY_SOURCE=2 -g -O2 -fdebug-prefix-map=/home/builder/disulfinder-1.2.11=. -fstack-protector-strong -Wformat -Werror=format-security -DDEFAULT_PKGDATADIR=\"/usr/share/disulfinder\" -O3 -Wall -Wno-deprecated -IBRNN/RNNs -c disulfinder.cpp -o disulfinder.o
g++ -o disulfinder disulfinder.o Input/GlobalDescriptor.o Input/createBRNNDataset.o Input/createKernelDataset.o Input/makeWindow.o Input/makeSparseVector.o Input/Protein.o Input/buildXfolds.o SVM/SVMClassifier.o Output/makeHTMLOutput.o Output/utils.o Output/makeASCIIOutput.o FSA-Alignment/fsa.o FSA-Alignment/viterbi_aligner.o NN/multi-array.o NN/array.o NN/brnn-model.o NN/brnn-test.o BRNN/RNNs/Node.o BRNN/RNNs/StructureSearch.o BRNN/RNNs/DataSet.o BRNN/RNNs/DPAG.o BRNN/RNNs/Options.o BRNN/protein_util.o BRNN/blast_util.o BRNN/rnn_util.o -Wl,-z,relro -Wl,-z,now -LCommon/ -lCommon 
make[3]: Leaving directory '/home/builder/disulfinder-1.2.11/disulfind/src'
sed -e 's|__datadir__||g;s|__docdir__|/usr/share/doc/disulfinder|g;s|__pkgdatadir__||g;s|__PREFIX__|/usr|g;s|__sysconfdir__||g;s|__VERSION__|1.2.11|g;' "disulfinder.pod" | \
pod2man -c 'User Commands' -r '1.2.11' -name DISULFINDER > "disulfinder.1"
make[2]: Leaving directory '/home/builder/disulfinder-1.2.11'
make[1]: Leaving directory '/home/builder/disulfinder-1.2.11'
   dh_auto_test
   create-stamp debian/debhelper-build-stamp
dh binary
   dh_testroot
   dh_prep
	rm -f -- debian/disulfinder.substvars debian/disulfinder-data.substvars
	rm -fr -- debian/.debhelper/generated/disulfinder/ debian/disulfinder/ debian/tmp/ debian/.debhelper/generated/disulfinder-data/ debian/disulfinder-data/
   dh_installdirs
	install -d debian/disulfinder
	install -d debian/disulfinder-data
	install -d debian/disulfinder-data/usr/share/disulfinder
	rm -f debian/disulfinder-data.debhelper.log debian/disulfinder.debhelper.log
   debian/rules override_dh_auto_install
make[1]: Entering directory '/home/builder/disulfinder-1.2.11'
/usr/bin/make DESTDIR=/home/builder/disulfinder-1.2.11/debian/disulfinder prefix=/usr install
make[2]: Entering directory '/home/builder/disulfinder-1.2.11'
/usr/bin/make -C disulfind/src install
make[3]: Entering directory '/home/builder/disulfinder-1.2.11/disulfind/src'
mkdir -p /home/builder/disulfinder-1.2.11/debian/disulfinder/usr/bin
cp disulfinder /home/builder/disulfinder-1.2.11/debian/disulfinder/usr/bin/
mkdir -p /home/builder/disulfinder-1.2.11/debian/disulfinder/usr/share/disulfinder
mkdir -p /home/builder/disulfinder-1.2.11/debian/disulfinder/usr/share/disulfinder/Models
cp -r ../Models /home/builder/disulfinder-1.2.11/debian/disulfinder/usr/share/disulfinder/ && find /home/builder/disulfinder-1.2.11/debian/disulfinder/usr/share/disulfinder/ -depth -ignore_readdir_race -name .svn -execdir rm -rf {} \;
rm -rf /home/builder/disulfinder-1.2.11/debian/disulfinder/usr/share/disulfinder/Models/conn/data/sequences_w5
rm -rf /home/builder/disulfinder-1.2.11/debian/disulfinder/usr/share/disulfinder/Predictions
rm -rf /home/builder/disulfinder-1.2.11/debian/disulfinder/usr/share/disulfinder/tmp
make[3]: Leaving directory '/home/builder/disulfinder-1.2.11/disulfind/src'
mkdir -p /home/builder/disulfinder-1.2.11/debian/disulfinder/usr/share/man/man1 && cp disulfinder.1 /home/builder/disulfinder-1.2.11/debian/disulfinder/usr/share/man/man1/
mkdir -p /home/builder/disulfinder-1.2.11/debian/disulfinder/usr/share/doc/disulfinder/examples && cp examples/res_id_* /home/builder/disulfinder-1.2.11/debian/disulfinder/usr/share/doc/disulfinder/examples/
make[2]: Leaving directory '/home/builder/disulfinder-1.2.11'
make[1]: Leaving directory '/home/builder/disulfinder-1.2.11'
   debian/rules override_dh_install
make[1]: Entering directory '/home/builder/disulfinder-1.2.11'
dh_install
	install -d debian/.debhelper/generated/disulfinder
	install -d debian/.debhelper/generated/disulfinder-data
mkdir -p /home/builder/disulfinder-1.2.11/debian/disulfinder-data/usr/share/disulfinder
mv /home/builder/disulfinder-1.2.11/debian/disulfinder/usr/share/disulfinder/* /home/builder/disulfinder-1.2.11/debian/disulfinder-data/usr/share/disulfinder
make[1]: Leaving directory '/home/builder/disulfinder-1.2.11'
   dh_installdocs
	cp --reflink=auto -a ./debian/upstream/metadata debian/disulfinder/usr/share/doc/disulfinder
	cp --reflink=auto -a ./debian/README.test debian/disulfinder/usr/share/doc/disulfinder
	cp --reflink=auto -a ./debian/tests/installation-test debian/disulfinder/usr/share/doc/disulfinder
	chown -R 0:0 debian/disulfinder/usr/share/doc
	chmod -R u\+rw,go=rX debian/disulfinder/usr/share/doc
	install -p -m0644 debian/copyright debian/disulfinder/usr/share/doc/disulfinder/copyright
	install -d debian/disulfinder-data/usr/share/doc/disulfinder-data
	install -p -m0644 debian/copyright debian/disulfinder-data/usr/share/doc/disulfinder-data/copyright
   dh_installchangelogs
	install -p -m0644 debian/changelog debian/disulfinder/usr/share/doc/disulfinder/changelog.Debian
	install -p -m0644 ./ChangeLog debian/disulfinder/usr/share/doc/disulfinder/changelog
	install -p -m0644 debian/changelog debian/disulfinder-data/usr/share/doc/disulfinder-data/changelog.Debian
	install -p -m0644 ./ChangeLog debian/disulfinder-data/usr/share/doc/disulfinder-data/changelog
   dh_installman
	man -l --recode UTF-8 ./debian/disulfinder/usr/share/man/man1/disulfinder.1 > debian/disulfinder/usr/share/man/man1/disulfinder.1.dh-new
	mv debian/disulfinder/usr/share/man/man1/disulfinder.1.dh-new debian/disulfinder/usr/share/man/man1/disulfinder.1
	chmod 0644 -- debian/disulfinder/usr/share/man/man1/disulfinder.1
   dh_perl
   dh_link
   dh_strip_nondeterminism
   dh_compress
	cd debian/disulfinder
	cd debian/disulfinder-data
	chmod a-x usr/share/doc/disulfinder-data/changelog usr/share/doc/disulfinder-data/changelog.Debian
	chmod a-x usr/share/doc/disulfinder/changelog usr/share/doc/disulfinder/changelog.Debian usr/share/doc/disulfinder/examples/res_id_41483.blastPsiMatTmb usr/share/man/man1/disulfinder.1
	gzip -9nf usr/share/doc/disulfinder-data/changelog usr/share/doc/disulfinder-data/changelog.Debian
	gzip -9nf usr/share/doc/disulfinder/changelog usr/share/doc/disulfinder/changelog.Debian usr/share/doc/disulfinder/examples/res_id_41483.blastPsiMatTmb usr/share/man/man1/disulfinder.1
	cd '/home/builder/disulfinder-1.2.11'
	cd '/home/builder/disulfinder-1.2.11'
   dh_fixperms
	find debian/disulfinder -true -print0 2>/dev/null | xargs -0r chown --no-dereference 0:0
	find debian/disulfinder-data -true -print0 2>/dev/null | xargs -0r chown --no-dereference 0:0
	find debian/disulfinder ! -type l -a -true -a -true -print0 2>/dev/null | xargs -0r chmod go=rX,u+rw,a-s
	find debian/disulfinder/usr/share/doc -type f -a -true -a ! -regex 'debian/disulfinder/usr/share/doc/[^/]*/examples/.*' -print0 2>/dev/null | xargs -0r chmod 0644
	find debian/disulfinder/usr/share/doc -type d -a -true -a -true -print0 2>/dev/null | xargs -0r chmod 0755
	find debian/disulfinder/usr/share/man -type f -a -true -a -true -print0 2>/dev/null | xargs -0r chmod 0644
	find debian/disulfinder -type f \( -name '*.so.*' -o -name '*.so' -o -name '*.la' -o -name '*.a' -o -name '*.js' -o -name '*.css' -o -name '*.scss' -o -name '*.sass' -o -name '*.jpeg' -o -name '*.jpg' -o -name '*.png' -o -name '*.gif' -o -name '*.cmxs' \) -a -true -a -true -print0 2>/dev/null | xargs -0r chmod 0644
	find debian/disulfinder-data ! -type l -a -true -a -true -print0 2>/dev/null | xargs -0r chmod go=rX,u+rw,a-s
	find debian/disulfinder/usr/bin -type f -a -true -a -true -print0 2>/dev/null | xargs -0r chmod a+x
	find debian/disulfinder-data/usr/share/doc -type f -a -true -a ! -regex 'debian/disulfinder-data/usr/share/doc/[^/]*/examples/.*' -print0 2>/dev/null | xargs -0r chmod 0644
	find debian/disulfinder-data/usr/share/doc -type d -a -true -a -true -print0 2>/dev/null | xargs -0r chmod 0755
	find debian/disulfinder-data -type f \( -name '*.so.*' -o -name '*.so' -o -name '*.la' -o -name '*.a' -o -name '*.js' -o -name '*.css' -o -name '*.scss' -o -name '*.sass' -o -name '*.jpeg' -o -name '*.jpg' -o -name '*.png' -o -name '*.gif' -o -name '*.cmxs' \) -a -true -a -true -print0 2>/dev/null | xargs -0r chmod 0644
   dh_missing
   dh_strip
	install -d debian/.debhelper/disulfinder/dbgsym-root/usr/lib/debug/.build-id/8b
	objcopy --only-keep-debug --compress-debug-sections debian/disulfinder/usr/bin/disulfinder debian/.debhelper/disulfinder/dbgsym-root/usr/lib/debug/.build-id/8b/3fb8cc30a392b5c701a552a35eab6e4a38ca75.debug
	chmod 0644 -- debian/.debhelper/disulfinder/dbgsym-root/usr/lib/debug/.build-id/8b/3fb8cc30a392b5c701a552a35eab6e4a38ca75.debug
	chown 0:0 -- debian/.debhelper/disulfinder/dbgsym-root/usr/lib/debug/.build-id/8b/3fb8cc30a392b5c701a552a35eab6e4a38ca75.debug
	strip --remove-section=.comment --remove-section=.note debian/disulfinder/usr/bin/disulfinder
	objcopy --add-gnu-debuglink debian/.debhelper/disulfinder/dbgsym-root/usr/lib/debug/.build-id/8b/3fb8cc30a392b5c701a552a35eab6e4a38ca75.debug debian/disulfinder/usr/bin/disulfinder
	install -d debian/.debhelper/disulfinder/dbgsym-root/usr/share/doc
	ln -s disulfinder debian/.debhelper/disulfinder/dbgsym-root/usr/share/doc/disulfinder-dbgsym
   dh_makeshlibs
	rm -f debian/disulfinder/DEBIAN/shlibs
	rm -f debian/disulfinder-data/DEBIAN/shlibs
   dh_shlibdeps
	install -d debian/disulfinder/DEBIAN
	dpkg-shlibdeps -Tdebian/disulfinder.substvars debian/disulfinder/usr/bin/disulfinder
   dh_installdeb
	install -d debian/disulfinder-data/DEBIAN
   dh_gencontrol
	echo misc:Depends= >> debian/disulfinder-data.substvars
	echo misc:Pre-Depends= >> debian/disulfinder-data.substvars
	dpkg-gencontrol -pdisulfinder-data -ldebian/changelog -Tdebian/disulfinder-data.substvars -Pdebian/disulfinder-data -UMulti-Arch
	echo misc:Depends= >> debian/disulfinder.substvars
	echo misc:Pre-Depends= >> debian/disulfinder.substvars
	install -d debian/.debhelper/disulfinder/dbgsym-root/DEBIAN
	dpkg-gencontrol -pdisulfinder -ldebian/changelog -Tdebian/disulfinder.substvars -Pdebian/.debhelper/disulfinder/dbgsym-root -UPre-Depends -URecommends -USuggests -UEnhances -UProvides -UEssential -UConflicts -DPriority=optional -UHomepage -UImportant -DAuto-Built-Package=debug-symbols -DPackage=disulfinder-dbgsym "-DDepends=disulfinder (= \${binary:Version})" "-DDescription=debug symbols for disulfinder" -DBuild-Ids=8b3fb8cc30a392b5c701a552a35eab6e4a38ca75 -DSection=debug -UMulti-Arch -UReplaces -UBreaks
	chmod 0644 -- debian/disulfinder-data/DEBIAN/control
	chown 0:0 -- debian/disulfinder-data/DEBIAN/control
	chmod 0644 -- debian/.debhelper/disulfinder/dbgsym-root/DEBIAN/control
	chown 0:0 -- debian/.debhelper/disulfinder/dbgsym-root/DEBIAN/control
	dpkg-gencontrol -pdisulfinder -ldebian/changelog -Tdebian/disulfinder.substvars -Pdebian/disulfinder -UMulti-Arch
	chmod 0644 -- debian/disulfinder/DEBIAN/control
	chown 0:0 -- debian/disulfinder/DEBIAN/control
   dh_md5sums
	cd debian/disulfinder >/dev/null && xargs -r0 md5sum | perl -pe 'if (s@^\\@@) { s/\\\\/\\/g; }' > DEBIAN/md5sums
	cd debian/disulfinder-data >/dev/null && xargs -r0 md5sum | perl -pe 'if (s@^\\@@) { s/\\\\/\\/g; }' > DEBIAN/md5sums
	chmod 0644 -- debian/disulfinder/DEBIAN/md5sums
	chown 0:0 -- debian/disulfinder/DEBIAN/md5sums
	cd debian/.debhelper/disulfinder/dbgsym-root >/dev/null && xargs -r0 md5sum | perl -pe 'if (s@^\\@@) { s/\\\\/\\/g; }' > DEBIAN/md5sums
	chmod 0644 -- debian/.debhelper/disulfinder/dbgsym-root/DEBIAN/md5sums
	chown 0:0 -- debian/.debhelper/disulfinder/dbgsym-root/DEBIAN/md5sums
	chmod 0644 -- debian/disulfinder-data/DEBIAN/md5sums
	chown 0:0 -- debian/disulfinder-data/DEBIAN/md5sums
   dh_builddeb
	dpkg-deb --build debian/disulfinder ..
	dpkg-deb --build debian/.debhelper/disulfinder/dbgsym-root ..
	dpkg-deb --build debian/disulfinder-data ..
dpkg-deb: building package 'disulfinder' in '../disulfinder_1.2.11-7_amd64.deb'.
dpkg-deb: building package 'disulfinder-dbgsym' in '../disulfinder-dbgsym_1.2.11-7_amd64.deb'.
dpkg-deb: building package 'disulfinder-data' in '../disulfinder-data_1.2.11-7_all.deb'.
dpkg-buildpackage: info: binary and diff upload (original source NOT included)
BUILD SUCCESSFUL
